<svg xmlns="http://www.w3.org/2000/svg" viewBox="0 0 949.18 777.05">
  <defs>
    <style>
      .cls-1 {
        fill: #fff;
      }
    </style>
  </defs>
  <g id="Layer_2" data-name="Layer 2">
    <g id="Artwork">
      <path class="cls-1" d="M432.33,775.58C274.56,763,128.57,676.92,55.67,559.58c-52.78-85-74.32-196.1-36.74-288.34,27.19-66.75,81.28-124.37,146.63-168.69,60.49-41,131.49-71.43,207-87.12C447.16,0,538.58-9.91,611.14,16c84.72,30.23,161,58.59,224.37,117.13,45.37,41.91,80.11,92.09,100,146.26,21.08,57.5,16,108.07-2.7,165.91C899.61,547.88,820.37,642,718.27,704.59c-66.59,40.84-146.14,68-228.46,71.95A450.65,450.65,0,0,1,432.33,775.58Z"/>
    </g>
  </g>
</svg>
