<svg xmlns="http://www.w3.org/2000/svg" viewBox="0 0 31.85 15.55">
  <defs>
    <style>
      .cls-1 {
        fill: #fff;
      }
    </style>
  </defs>
  <title>next-arrow</title>
  <g id="Layer_2" data-name="Layer 2">
    <g id="Layer_1-2" data-name="Layer 1">
      <path class="cls-1" d="M30.42,5.38,21,.32a2.73,2.73,0,0,0-4,2.4V6.27H1.5a1.5,1.5,0,0,0,0,3H17v3.55a2.71,2.71,0,0,0,1.33,2.34,2.68,2.68,0,0,0,1.39.39A2.72,2.72,0,0,0,21,15.22l9.43-5.05a2.72,2.72,0,0,0,0-4.79Z"/>
    </g>
  </g>
</svg>
